{
  "project_info": {
    "project_number": "357143058796",
    "firebase_url": "https://fcm-rbl.firebaseio.com",
    "project_id": "fcm-rbl",
    "storage_bucket": "fcm-rbl.appspot.com"
  },
  "client": [
    {
      "client_info": {
        "mobilesdk_app_id": "1:357143058796:android:df956d45775cbae1",
        "android_client_info": {
          "package_name": "com.brainagic.ranegroup.catalogue"
        }
      },
      "oauth_client": [
        {
          "client_id": "357143058796-mq98al6irkjaa38hfejji5khf06ighf1.apps.googleusercontent.com",
          "client_type": 3
        }
      ],
      "api_key": [
        {
          "current_key": "AIzaSyBlH5T9DSBx-EvSqwWts8DI3n1rx9VWPKs"
        }
      ],
      "services": {
        "analytics_service": {
          "status": 1
        },
        "appinvite_service": {
          "status": 1,
          "other_platform_oauth_client": []
        },
        "ads_service": {
          "status": 2
        }
      }
    },
    {
      "client_info": {
        "mobilesdk_app_id": "1:357143058796:android:4bcf202c8b81000c",
        "android_client_info": {
          "package_name": "com.brainagic.ranegroup.catalogue"
        }
      },
      "oauth_client": [
        {
          "client_id": "357143058796-sjicdjcb9nlg5k4lb9jjkvef7ravhmp4.apps.googleusercontent.com",
          "client_type": 1,
          "android_info": {
            "package_name": "com.brainagic.ranegroup.catalogue",
            "certificate_hash": "4EF89819BE654333FFFB488E78E445FF988003CE"
          }
        },
        {
          "client_id": "357143058796-mq98al6irkjaa38hfejji5khf06ighf1.apps.googleusercontent.com",
          "client_type": 3
        }
      ],
      "api_key": [
        {
          "current_key": "AIzaSyBlH5T9DSBx-EvSqwWts8DI3n1rx9VWPKs"
        }
      ],
      "services": {
        "analytics_service": {
          "status": 1
        },
        "appinvite_service": {
          "status": 2,
          "other_platform_oauth_client": [
            {
              "client_id": "357143058796-mq98al6irkjaa38hfejji5khf06ighf1.apps.googleusercontent.com",
              "client_type": 3
            }
          ]
        },
        "ads_service": {
          "status": 2
        }
      }
    }
  ],
  "configuration_version": "1"
}